module gitlab.com/etke.cc/postmoogle

go 1.18

// replace gitlab.com/etke.cc/linkpearl => ../linkpearl

require (
	github.com/archdx/zerolog-sentry v1.2.0
	github.com/emersion/go-msgauth v0.6.6
	github.com/emersion/go-smtp v0.15.0
	github.com/fsnotify/fsnotify v1.6.0
	github.com/gabriel-vasile/mimetype v1.4.1
	github.com/getsentry/sentry-go v0.13.0
	github.com/jhillyerd/enmime v0.10.0
	github.com/lib/pq v1.10.9
	github.com/mattn/go-sqlite3 v1.14.17
	github.com/mileusna/crontab v1.2.0
	github.com/raja/argon2pw v1.0.2-0.20210910183755-a391af63bd39
	github.com/rs/zerolog v1.30.0
	gitlab.com/etke.cc/go/env v1.0.0
	gitlab.com/etke.cc/go/fswatcher v1.0.0
	gitlab.com/etke.cc/go/healthchecks v1.0.1
	gitlab.com/etke.cc/go/mxidwc v1.0.0
	gitlab.com/etke.cc/go/secgen v1.1.1
	gitlab.com/etke.cc/go/trysmtp v1.1.3
	gitlab.com/etke.cc/go/validator v1.0.6
	gitlab.com/etke.cc/linkpearl v0.0.0-20230916181909-246862c25568
	maunium.net/go/mautrix v0.16.1
)

require (
	blitiri.com.ar/go/spf v1.5.1 // indirect
	github.com/buger/jsonparser v1.0.0 // indirect
	github.com/cention-sany/utf7 v0.0.0-20170124080048-26cad61bd60a // indirect
	github.com/emersion/go-sasl v0.0.0-20200509203442-7bfe0ed36a21 // indirect
	github.com/gogs/chardet v0.0.0-20191104214054-4b6791f73a28 // indirect
	github.com/google/uuid v1.3.0 // indirect
	github.com/hashicorp/golang-lru/v2 v2.0.1 // indirect
	github.com/jaytaylor/html2text v0.0.0-20200412013138-3577fbdbcff7 // indirect
	github.com/mattn/go-colorable v0.1.13 // indirect
	github.com/mattn/go-isatty v0.0.19 // indirect
	github.com/mattn/go-runewidth v0.0.12 // indirect
	github.com/mikesmitty/edkey v0.0.0-20170222072505-3356ea4e686a // indirect
	github.com/olekukonko/tablewriter v0.0.5 // indirect
	github.com/pkg/errors v0.9.1 // indirect
	github.com/rivo/uniseg v0.2.0 // indirect
	github.com/ssor/bom v0.0.0-20170718123548-6386211fdfcf // indirect
	github.com/tidwall/gjson v1.16.0 // indirect
	github.com/tidwall/match v1.1.1 // indirect
	github.com/tidwall/pretty v1.2.1 // indirect
	github.com/tidwall/sjson v1.2.5 // indirect
	github.com/yuin/goldmark v1.5.6 // indirect
	go.mau.fi/util v0.1.0 // indirect
	golang.org/x/crypto v0.13.0 // indirect
	golang.org/x/exp v0.0.0-20230905200255-921286631fa9 // indirect
	golang.org/x/net v0.15.0 // indirect
	golang.org/x/sys v0.12.0 // indirect
	golang.org/x/text v0.13.0 // indirect
	maunium.net/go/maulogger/v2 v2.4.1 // indirect
)
